<?xml version="1.0" encoding="UTF-8" standalone="no"?>
<!-- Created with Inkscape (http://www.inkscape.org/) -->

<svg
   xmlns:dc="http://purl.org/dc/elements/1.1/"
   xmlns:cc="http://creativecommons.org/ns#"
   xmlns:rdf="http://www.w3.org/1999/02/22-rdf-syntax-ns#"
   xmlns:svg="http://www.w3.org/2000/svg"
   xmlns="http://www.w3.org/2000/svg"
   xmlns:sodipodi="http://sodipodi.sourceforge.net/DTD/sodipodi-0.dtd"
   xmlns:inkscape="http://www.inkscape.org/namespaces/inkscape"
   width="210mm"
   height="297mm"
   viewBox="0 0 744.09448819 1052.3622047"
   id="svg2"
   version="1.1"
   inkscape:version="0.91 r13725"
   sodipodi:docname="UI elements.svg">
  <defs
     id="defs4" />
  <sodipodi:namedview
     id="base"
     pagecolor="#ffffff"
     bordercolor="#666666"
     borderopacity="1.0"
     inkscape:pageopacity="0"
     inkscape:pageshadow="2"
     inkscape:zoom="0.35"
     inkscape:cx="115.07723"
     inkscape:cy="442.20409"
     inkscape:document-units="px"
     inkscape:current-layer="layer1"
     showgrid="false"
     inkscape:window-width="1366"
     inkscape:window-height="715"
     inkscape:window-x="-8"
     inkscape:window-y="-8"
     inkscape:window-maximized="1" />
  <metadata
     id="metadata7">
    <rdf:RDF>
      <cc:Work
         rdf:about="">
        <dc:format>image/svg+xml</dc:format>
        <dc:type
           rdf:resource="http://purl.org/dc/dcmitype/StillImage" />
        <dc:title></dc:title>
      </cc:Work>
    </rdf:RDF>
  </metadata>
  <g
     inkscape:label="Camada 1"
     inkscape:groupmode="layer"
     id="layer1">
    <path
       style="color:#000000;clip-rule:evenodd;display:inline;overflow:visible;visibility:visible;opacity:1;isolation:auto;mix-blend-mode:normal;color-interpolation:sRGB;color-interpolation-filters:linearRGB;solid-color:#000000;solid-opacity:1;fill:#000000;fill-opacity:1;fill-rule:evenodd;stroke:#000000;stroke-width:8;stroke-linecap:round;stroke-linejoin:round;stroke-miterlimit:4;stroke-dasharray:none;stroke-dashoffset:0;stroke-opacity:1;marker:none;color-rendering:auto;image-rendering:auto;shape-rendering:auto;text-rendering:auto;enable-background:accumulate"
       d="M 180.06641 36.630859 L 171.96289 56.246094 L 151.42969 47.71875 L 153.85547 78.15625 L 127.76172 88.935547 L 142.64648 101.62305 L 128.57227 118.06836 L 159.04883 125.35352 L 161.3418 154.8418 L 174.79297 146.58203 L 186.42773 175.21875 L 200.71484 175.21875 L 192.46875 154.91797 L 197.1875 147.19922 L 208.28125 174.50586 L 222.56641 174.50586 L 207.21484 136.7168 L 234.40039 143.27148 L 229.41211 122.57422 L 248.25781 118.06836 L 229.81641 96.519531 L 245.97266 70.212891 L 223.74609 68.484375 L 225.40039 47.71875 L 198.90039 58.724609 L 180.06641 36.630859 z "
       id="rect4146"
       inkscape:export-xdpi="90"
       inkscape:export-ydpi="90" />
    <rect
       style="color:#000000;clip-rule:evenodd;display:inline;overflow:visible;visibility:visible;opacity:1;isolation:auto;mix-blend-mode:normal;color-interpolation:sRGB;color-interpolation-filters:linearRGB;solid-color:#000000;solid-opacity:1;fill:#800080;fill-opacity:1;fill-rule:evenodd;stroke:none;stroke-width:6;stroke-linecap:round;stroke-linejoin:round;stroke-miterlimit:4;stroke-dasharray:none;stroke-dashoffset:0;stroke-opacity:1;marker:none;color-rendering:auto;image-rendering:auto;shape-rendering:auto;text-rendering:auto;enable-background:accumulate"
       id="rect4142"
       width="14.285714"
       height="48.57164"
       x="115.2457"
       y="140.55481"
       transform="matrix(1,0,0.37637709,0.92646656,0,0)"
       inkscape:export-xdpi="90"
       inkscape:export-ydpi="90" />
    <rect
       y="139.78384"
       x="137.38857"
       height="48.57164"
       width="14.285714"
       id="rect4144"
       style="color:#000000;clip-rule:evenodd;display:inline;overflow:visible;visibility:visible;opacity:1;isolation:auto;mix-blend-mode:normal;color-interpolation:sRGB;color-interpolation-filters:linearRGB;solid-color:#000000;solid-opacity:1;fill:#800080;fill-opacity:1;fill-rule:evenodd;stroke:none;stroke-width:6;stroke-linecap:round;stroke-linejoin:round;stroke-miterlimit:4;stroke-dasharray:none;stroke-dashoffset:0;stroke-opacity:1;marker:none;color-rendering:auto;image-rendering:auto;shape-rendering:auto;text-rendering:auto;enable-background:accumulate"
       transform="matrix(1,0,0.37637709,0.92646656,0,0)"
       inkscape:export-xdpi="90"
       inkscape:export-ydpi="90" />
    <path
       d="m 234.40128,143.2708 -38.93227,-9.38606 -34.12634,20.95741 -3.10406,-39.92724 -30.4773,-25.979888 37.01386,-15.290334 15.29033,-37.013858 25.97988,30.477298 39.92725,3.10406 -20.95741,34.126342 z"
       inkscape:randomized="0"
       inkscape:rounded="0"
       inkscape:flatsided="false"
       sodipodi:arg2="1.4137167"
       sodipodi:arg1="0.78539816"
       sodipodi:r2="35.544151"
       sodipodi:r1="62.922043"
       sodipodi:cy="98.778198"
       sodipodi:cx="189.90868"
       sodipodi:sides="5"
       id="path4138"
       style="color:#000000;clip-rule:evenodd;display:inline;overflow:visible;visibility:visible;opacity:1;isolation:auto;mix-blend-mode:normal;color-interpolation:sRGB;color-interpolation-filters:linearRGB;solid-color:#000000;solid-opacity:1;fill:#ccff00;fill-opacity:1;fill-rule:evenodd;stroke:none;stroke-width:6;stroke-linecap:round;stroke-linejoin:round;stroke-miterlimit:4;stroke-dasharray:none;stroke-dashoffset:0;stroke-opacity:1;marker:none;color-rendering:auto;image-rendering:auto;shape-rendering:auto;text-rendering:auto;enable-background:accumulate"
       sodipodi:type="star"
       transform="matrix(0.70710678,0.70710678,-0.70710678,0.70710678,123.97621,-105.50874)"
       inkscape:export-xdpi="90"
       inkscape:export-ydpi="90" />
    <path
       sodipodi:type="star"
       style="color:#000000;clip-rule:evenodd;display:inline;overflow:visible;visibility:visible;opacity:1;isolation:auto;mix-blend-mode:normal;color-interpolation:sRGB;color-interpolation-filters:linearRGB;solid-color:#000000;solid-opacity:1;fill:#800080;fill-opacity:1;fill-rule:evenodd;stroke:none;stroke-width:6;stroke-linecap:round;stroke-linejoin:round;stroke-miterlimit:4;stroke-dasharray:none;stroke-dashoffset:0;stroke-opacity:1;marker:none;color-rendering:auto;image-rendering:auto;shape-rendering:auto;text-rendering:auto;enable-background:accumulate"
       id="path4136"
       sodipodi:sides="5"
       sodipodi:cx="189.90868"
       sodipodi:cy="98.778198"
       sodipodi:r1="62.922043"
       sodipodi:r2="35.544151"
       sodipodi:arg1="0.78539816"
       sodipodi:arg2="1.4137167"
       inkscape:flatsided="false"
       inkscape:rounded="0"
       inkscape:randomized="0"
       d="m 234.40128,143.2708 -38.93227,-9.38606 -34.12634,20.95741 -3.10406,-39.92724 -30.4773,-25.979888 37.01386,-15.290334 15.29033,-37.013858 25.97988,30.477298 39.92725,3.10406 -20.95741,34.126342 z"
       inkscape:export-xdpi="90"
       inkscape:export-ydpi="90" />
    <path
       d="m 209.1256,117.99512 -18.2306,-4.39516 -15.98016,9.81362 -1.45352,-18.69652 -14.27144,-12.165458 17.33228,-7.159923 7.15992,-17.332279 12.16546,14.271439 18.69651,1.453522 -9.81361,15.980157 z"
       inkscape:randomized="0"
       inkscape:rounded="0"
       inkscape:flatsided="false"
       sodipodi:arg2="1.4137167"
       sodipodi:arg1="0.78539816"
       sodipodi:r2="16.644068"
       sodipodi:r1="29.464165"
       sodipodi:cy="97.160812"
       sodipodi:cx="188.29129"
       sodipodi:sides="5"
       id="path4140"
       style="color:#000000;clip-rule:evenodd;display:inline;overflow:visible;visibility:visible;opacity:1;isolation:auto;mix-blend-mode:normal;color-interpolation:sRGB;color-interpolation-filters:linearRGB;solid-color:#000000;solid-opacity:1;fill:#ccff00;fill-opacity:1;fill-rule:evenodd;stroke:none;stroke-width:6;stroke-linecap:round;stroke-linejoin:round;stroke-miterlimit:4;stroke-dasharray:none;stroke-dashoffset:0;stroke-opacity:1;marker:none;color-rendering:auto;image-rendering:auto;shape-rendering:auto;text-rendering:auto;enable-background:accumulate"
       sodipodi:type="star"
       transform="matrix(0.59976088,0.4407462,-0.4407462,0.59976088,120.25858,-41.673587)"
       inkscape:export-xdpi="90"
       inkscape:export-ydpi="90" />
    <path
       d="m 399.01027,138.17415 -20.5182,1.72973 -10.42902,17.75457 -17.61629,-10.66091 -18.87312,8.23372 -7.98555,-18.97945 -20.10833,-4.43212 4.69539,-20.04849 -13.66285,-15.405046 15.58286,-13.459684 -1.99862,-20.493764 20.51821,-1.729738 10.42901,-17.754563 17.61629,10.660911 18.87312,-8.233724 7.98555,18.979454 20.10834,4.43212 -4.6954,20.04849 13.66285,15.405044 -15.58286,13.45968 z"
       inkscape:randomized="0"
       inkscape:rounded="0"
       inkscape:flatsided="false"
       sodipodi:arg2="1.0088975"
       sodipodi:arg1="0.69473828"
       sodipodi:r2="46.80732"
       sodipodi:r1="59.171577"
       sodipodi:cy="100.29343"
       sodipodi:cx="353.5534"
       sodipodi:sides="10"
       id="path4173"
       style="color:#000000;clip-rule:evenodd;display:inline;overflow:visible;visibility:visible;opacity:1;isolation:auto;mix-blend-mode:normal;color-interpolation:sRGB;color-interpolation-filters:linearRGB;solid-color:#000000;solid-opacity:1;fill:#2ca02c;fill-opacity:1;fill-rule:evenodd;stroke:#000000;stroke-width:8;stroke-linecap:round;stroke-linejoin:round;stroke-miterlimit:4;stroke-dasharray:none;stroke-dashoffset:0;stroke-opacity:1;marker:none;color-rendering:auto;image-rendering:auto;shape-rendering:auto;text-rendering:auto;enable-background:accumulate"
       sodipodi:type="star"
       inkscape:export-xdpi="90"
       inkscape:export-ydpi="90" />
    <path
       sodipodi:type="star"
       style="color:#000000;clip-rule:evenodd;display:inline;overflow:visible;visibility:visible;opacity:1;isolation:auto;mix-blend-mode:normal;color-interpolation:sRGB;color-interpolation-filters:linearRGB;solid-color:#000000;solid-opacity:1;fill:#2ca02c;fill-opacity:1;fill-rule:evenodd;stroke:none;stroke-width:8;stroke-linecap:round;stroke-linejoin:round;stroke-miterlimit:4;stroke-dasharray:none;stroke-dashoffset:0;stroke-opacity:1;marker:none;color-rendering:auto;image-rendering:auto;shape-rendering:auto;text-rendering:auto;enable-background:accumulate"
       id="path4167"
       sodipodi:sides="10"
       sodipodi:cx="353.5534"
       sodipodi:cy="100.29343"
       sodipodi:r1="59.171577"
       sodipodi:r2="46.80732"
       sodipodi:arg1="0.69473828"
       sodipodi:arg2="1.0088975"
       inkscape:flatsided="false"
       inkscape:rounded="0"
       inkscape:randomized="0"
       d="m 399.01027,138.17415 -20.5182,1.72973 -10.42902,17.75457 -17.61629,-10.66091 -18.87312,8.23372 -7.98555,-18.97945 -20.10833,-4.43212 4.69539,-20.04849 -13.66285,-15.405046 15.58286,-13.459684 -1.99862,-20.493764 20.51821,-1.729738 10.42901,-17.754563 17.61629,10.660911 18.87312,-8.233724 7.98555,18.979454 20.10834,4.43212 -4.6954,20.04849 13.66285,15.405044 -15.58286,13.45968 z"
       inkscape:export-xdpi="90"
       inkscape:export-ydpi="90" />
    <path
       d="m 399.01027,138.17415 -14.12215,-14.33482 -16.82507,33.81912 -2.99926,-19.8979 -33.49015,17.47071 9.26924,-17.86066 -37.36312,-5.55091 17.9972,-9.00126 -26.96466,-26.452276 19.85085,3.296324 -6.26661,-37.249772 14.12215,14.33482 16.82507,-33.819121 2.99926,19.897902 33.49015,-17.470715 -9.26924,17.860663 37.36313,5.550911 -17.99721,9.001256 26.96466,26.452278 -19.85085,-3.29633 z"
       inkscape:randomized="0"
       inkscape:rounded="0"
       inkscape:flatsided="false"
       sodipodi:arg2="0.64441676"
       sodipodi:arg1="0.69473828"
       sodipodi:r2="39.195332"
       sodipodi:r1="59.171577"
       sodipodi:cy="100.29343"
       sodipodi:cx="353.55341"
       sodipodi:sides="10"
       id="path4171"
       style="color:#000000;clip-rule:evenodd;display:inline;overflow:visible;visibility:visible;opacity:1;isolation:auto;mix-blend-mode:normal;color-interpolation:sRGB;color-interpolation-filters:linearRGB;solid-color:#000000;solid-opacity:1;fill:#ffd42a;fill-opacity:1;fill-rule:evenodd;stroke:none;stroke-width:8;stroke-linecap:round;stroke-linejoin:round;stroke-miterlimit:4;stroke-dasharray:none;stroke-dashoffset:0;stroke-opacity:1;marker:none;color-rendering:auto;image-rendering:auto;shape-rendering:auto;text-rendering:auto;enable-background:accumulate"
       sodipodi:type="star"
       transform="matrix(0.63311066,-0.16964149,0.16964149,0.63311066,112.70105,96.773916)"
       inkscape:export-xdpi="90"
       inkscape:export-ydpi="90" />
    <path
       transform="matrix(0.98239372,0.18682231,-0.18682231,0.98239372,72.972574,-100.01017)"
       sodipodi:type="star"
       style="color:#000000;clip-rule:evenodd;display:inline;overflow:visible;visibility:visible;opacity:1;isolation:auto;mix-blend-mode:normal;color-interpolation:sRGB;color-interpolation-filters:linearRGB;solid-color:#000000;solid-opacity:1;fill:#800080;fill-opacity:1;fill-rule:evenodd;stroke:#ffffff;stroke-width:6;stroke-linecap:round;stroke-linejoin:round;stroke-miterlimit:4;stroke-dasharray:none;stroke-dashoffset:0;stroke-opacity:1;marker:none;color-rendering:auto;image-rendering:auto;shape-rendering:auto;text-rendering:auto;enable-background:accumulate"
       id="path4181"
       sodipodi:sides="5"
       sodipodi:cx="502.23026"
       sodipodi:cy="53.242691"
       sodipodi:r1="37.06823"
       sodipodi:r2="20.939541"
       sodipodi:arg1="0.78539816"
       sodipodi:arg2="1.4137167"
       inkscape:flatsided="false"
       inkscape:rounded="0"
       inkscape:randomized="0"
       d="M 528.44145,79.453888 505.50592,73.924431 485.40163,86.270726 483.57299,62.749044 465.6184,47.443942 487.42376,38.4362 l 9.00775,-21.805367 15.3051,17.954591 23.52168,1.828643 -12.34629,20.10429 z"
       inkscape:export-xdpi="90"
       inkscape:export-ydpi="90" />
    <path
       transform="matrix(0.98239372,0.18682231,-0.18682231,0.98239372,72.972574,-100.01017)"
       sodipodi:type="star"
       style="color:#000000;clip-rule:evenodd;display:inline;overflow:visible;visibility:visible;opacity:1;isolation:auto;mix-blend-mode:normal;color-interpolation:sRGB;color-interpolation-filters:linearRGB;solid-color:#000000;solid-opacity:1;fill:#800080;fill-opacity:1;fill-rule:evenodd;stroke:#000000;stroke-width:6;stroke-linecap:round;stroke-linejoin:round;stroke-miterlimit:4;stroke-dasharray:none;stroke-dashoffset:0;stroke-opacity:1;marker:none;color-rendering:auto;image-rendering:auto;shape-rendering:auto;text-rendering:auto;enable-background:accumulate"
       id="path4187"
       sodipodi:sides="5"
       sodipodi:cx="502.23026"
       sodipodi:cy="53.242691"
       sodipodi:r1="37.06823"
       sodipodi:r2="20.939541"
       sodipodi:arg1="0.78539816"
       sodipodi:arg2="1.4137167"
       inkscape:flatsided="false"
       inkscape:rounded="0"
       inkscape:randomized="0"
       d="M 528.44145,79.453888 505.50592,73.924431 485.40163,86.270726 483.57299,62.749044 465.6184,47.443942 487.42376,38.4362 l 9.00775,-21.805367 15.3051,17.954591 23.52168,1.828643 -12.34629,20.10429 z"
       inkscape:export-xdpi="90"
       inkscape:export-ydpi="90" />
    <circle
       inkscape:export-ydpi="90"
       inkscape:export-xdpi="90"
       transform="matrix(0.94418908,-0.32940399,0.32940399,0.94418908,0,0)"
       r="19.285715"
       cy="274.54697"
       cx="488.85995"
       id="circle4183"
       style="color:#000000;clip-rule:evenodd;display:inline;overflow:visible;visibility:visible;opacity:1;isolation:auto;mix-blend-mode:normal;color-interpolation:sRGB;color-interpolation-filters:linearRGB;solid-color:#000000;solid-opacity:1;fill:#ffd42a;fill-opacity:1;fill-rule:evenodd;stroke:#000000;stroke-width:8;stroke-linecap:round;stroke-linejoin:round;stroke-miterlimit:4;stroke-dasharray:none;stroke-dashoffset:0;stroke-opacity:1;marker:none;color-rendering:auto;image-rendering:auto;shape-rendering:auto;text-rendering:auto;enable-background:accumulate" />
    <path
       transform="matrix(0.94418907,-0.32940399,0.32940399,0.94418907,65.531397,160.29493)"
       inkscape:transform-center-y="31.034888"
       inkscape:transform-center-x="1.3923678"
       sodipodi:type="star"
       style="color:#000000;clip-rule:evenodd;display:inline;overflow:visible;visibility:visible;opacity:1;isolation:auto;mix-blend-mode:normal;color-interpolation:sRGB;color-interpolation-filters:linearRGB;solid-color:#000000;solid-opacity:1;fill:#2ca02c;fill-opacity:1;fill-rule:evenodd;stroke:#000000;stroke-width:8;stroke-linecap:round;stroke-linejoin:round;stroke-miterlimit:4;stroke-dasharray:none;stroke-dashoffset:0;stroke-opacity:1;marker:none;color-rendering:auto;image-rendering:auto;shape-rendering:auto;text-rendering:auto;enable-background:accumulate"
       id="path4185"
       sodipodi:sides="10"
       sodipodi:cx="458.44431"
       sodipodi:cy="153.42329"
       sodipodi:r1="31.859407"
       sodipodi:r2="25.202192"
       sodipodi:arg1="0.69473828"
       sodipodi:arg2="1.0088975"
       inkscape:flatsided="false"
       inkscape:rounded="0"
       inkscape:randomized="0"
       d="m 482.91938,173.81919 -11.0475,0.93133 -5.61523,9.55949 -9.48504,-5.74009 -10.16174,4.43323 -4.29961,-10.21899 -10.82682,-2.38637 2.52812,-10.79459 -7.35641,-8.29444 8.39019,-7.24702 -1.07611,-11.03434 11.0475,-0.93133 5.61523,-9.55949 9.48504,5.74009 10.16174,-4.43323 4.29961,10.21899 10.82682,2.38636 -2.52812,10.79459 7.35641,8.29445 -8.39019,7.24702 z"
       inkscape:export-xdpi="90"
       inkscape:export-ydpi="90" />
    <path
       inkscape:export-ydpi="90"
       inkscape:export-xdpi="90"
       d="M 528.44145,79.453888 505.50592,73.924431 485.40163,86.270726 483.57299,62.749044 465.6184,47.443942 487.42376,38.4362 l 9.00775,-21.805367 15.3051,17.954591 23.52168,1.828643 -12.34629,20.10429 z"
       inkscape:randomized="0"
       inkscape:rounded="0"
       inkscape:flatsided="false"
       sodipodi:arg2="1.4137167"
       sodipodi:arg1="0.78539816"
       sodipodi:r2="20.939541"
       sodipodi:r1="37.06823"
       sodipodi:cy="53.242691"
       sodipodi:cx="502.23026"
       sodipodi:sides="5"
       id="path4177"
       style="color:#000000;clip-rule:evenodd;display:inline;overflow:visible;visibility:visible;opacity:1;isolation:auto;mix-blend-mode:normal;color-interpolation:sRGB;color-interpolation-filters:linearRGB;solid-color:#000000;solid-opacity:1;fill:#800080;fill-opacity:1;fill-rule:evenodd;stroke:none;stroke-width:6;stroke-linecap:round;stroke-linejoin:round;stroke-miterlimit:4;stroke-dasharray:none;stroke-dashoffset:0;stroke-opacity:1;marker:none;color-rendering:auto;image-rendering:auto;shape-rendering:auto;text-rendering:auto;enable-background:accumulate"
       sodipodi:type="star"
       transform="matrix(0.98239372,0.18682231,-0.18682231,0.98239372,72.972574,-100.01017)" />
    <circle
       style="color:#000000;clip-rule:evenodd;display:inline;overflow:visible;visibility:visible;opacity:1;isolation:auto;mix-blend-mode:normal;color-interpolation:sRGB;color-interpolation-filters:linearRGB;solid-color:#000000;solid-opacity:1;fill:#ffd42a;fill-opacity:1;fill-rule:evenodd;stroke:none;stroke-width:8;stroke-linecap:round;stroke-linejoin:round;stroke-miterlimit:4;stroke-dasharray:none;stroke-dashoffset:0;stroke-opacity:1;marker:none;color-rendering:auto;image-rendering:auto;shape-rendering:auto;text-rendering:auto;enable-background:accumulate"
       id="path4175"
       cx="488.85995"
       cy="274.54697"
       r="19.285715"
       transform="matrix(0.94418908,-0.32940399,0.32940399,0.94418908,0,0)"
       inkscape:export-xdpi="90"
       inkscape:export-ydpi="90" />
    <path
       inkscape:export-ydpi="90"
       inkscape:export-xdpi="90"
       d="m 482.91938,173.81919 -11.0475,0.93133 -5.61523,9.55949 -9.48504,-5.74009 -10.16174,4.43323 -4.29961,-10.21899 -10.82682,-2.38637 2.52812,-10.79459 -7.35641,-8.29444 8.39019,-7.24702 -1.07611,-11.03434 11.0475,-0.93133 5.61523,-9.55949 9.48504,5.74009 10.16174,-4.43323 4.29961,10.21899 10.82682,2.38636 -2.52812,10.79459 7.35641,8.29445 -8.39019,7.24702 z"
       inkscape:randomized="0"
       inkscape:rounded="0"
       inkscape:flatsided="false"
       sodipodi:arg2="1.0088975"
       sodipodi:arg1="0.69473828"
       sodipodi:r2="25.202192"
       sodipodi:r1="31.859407"
       sodipodi:cy="153.42329"
       sodipodi:cx="458.44431"
       sodipodi:sides="10"
       id="path4179"
       style="color:#000000;clip-rule:evenodd;display:inline;overflow:visible;visibility:visible;opacity:1;isolation:auto;mix-blend-mode:normal;color-interpolation:sRGB;color-interpolation-filters:linearRGB;solid-color:#000000;solid-opacity:1;fill:#2ca02c;fill-opacity:1;fill-rule:evenodd;stroke:none;stroke-width:8;stroke-linecap:round;stroke-linejoin:round;stroke-miterlimit:4;stroke-dasharray:none;stroke-dashoffset:0;stroke-opacity:1;marker:none;color-rendering:auto;image-rendering:auto;shape-rendering:auto;text-rendering:auto;enable-background:accumulate"
       sodipodi:type="star"
       inkscape:transform-center-x="1.3923678"
       inkscape:transform-center-y="31.034888"
       transform="matrix(0.94418907,-0.32940399,0.32940399,0.94418907,65.531397,160.29493)" />
    <rect
       style="color:#000000;clip-rule:evenodd;display:inline;overflow:visible;visibility:visible;opacity:1;isolation:auto;mix-blend-mode:normal;color-interpolation:sRGB;color-interpolation-filters:linearRGB;solid-color:#000000;solid-opacity:1;fill:#d40000;fill-opacity:1;fill-rule:evenodd;stroke:#000000;stroke-width:8;stroke-linecap:round;stroke-linejoin:round;stroke-miterlimit:4;stroke-dasharray:none;stroke-dashoffset:0;stroke-opacity:1;marker:none;color-rendering:auto;image-rendering:auto;shape-rendering:auto;text-rendering:auto;enable-background:accumulate"
       id="rect4249"
       width="627.14288"
       height="560"
       x="67.14286"
       y="229.50507" />
    <flowRoot
       xml:space="preserve"
       id="flowRoot4189"
       style="font-style:normal;font-variant:normal;font-weight:normal;font-stretch:normal;font-size:125px;line-height:125%;font-family:'ZX Spectrum7 Bold';-inkscape-font-specification:'ZX Spectrum7 Bold, ';letter-spacing:0px;word-spacing:0px;fill:#ffffff;fill-opacity:1;stroke:none;stroke-width:1px;stroke-linecap:butt;stroke-linejoin:miter;stroke-opacity:1"
       transform="translate(130,-42.857143)"><flowRegion
         id="flowRegion4191"><rect
           id="rect4193"
           width="188.57141"
           height="219.99998"
           x="131.42857"
           y="293.79077"
           style="font-style:normal;font-variant:normal;font-weight:normal;font-stretch:normal;font-size:125px;font-family:'ZX Spectrum7 Bold';-inkscape-font-specification:'ZX Spectrum7 Bold, ';fill:#ffffff" /></flowRegion><flowPara
         id="flowPara4195"
         style="font-style:normal;font-variant:normal;font-weight:normal;font-stretch:normal;font-size:125px;font-family:'ZX Spectrum7 Bold';-inkscape-font-specification:'ZX Spectrum7 Bold, ';text-align:center;text-anchor:middle;fill:#ffffff">3</flowPara></flowRoot>    <text
       xml:space="preserve"
       style="font-style:normal;font-weight:normal;font-size:40px;line-height:125%;font-family:sans-serif;letter-spacing:0px;word-spacing:0px;fill:#000000;fill-opacity:1;stroke:none;stroke-width:1px;stroke-linecap:butt;stroke-linejoin:miter;stroke-opacity:1"
       x="52.857143"
       y="198.07649"
       id="text4197"
       sodipodi:linespacing="125%"><tspan
         sodipodi:role="line"
         id="tspan4199"
         x="52.857143"
         y="198.07649" /></text>
    <rect
       style="color:#000000;clip-rule:evenodd;display:inline;overflow:visible;visibility:visible;opacity:1;isolation:auto;mix-blend-mode:normal;color-interpolation:sRGB;color-interpolation-filters:linearRGB;solid-color:#000000;solid-opacity:1;fill:#ffffff;fill-opacity:1;fill-rule:evenodd;stroke:none;stroke-width:8;stroke-linecap:round;stroke-linejoin:round;stroke-miterlimit:4;stroke-dasharray:none;stroke-dashoffset:0;stroke-opacity:1;marker:none;color-rendering:auto;image-rendering:auto;shape-rendering:auto;text-rendering:auto;enable-background:accumulate"
       id="rect4201"
       width="95.714287"
       height="10"
       x="224.28574"
       y="343.79077" />
    <rect
       y="343.79077"
       x="395"
       height="10"
       width="95.714287"
       id="rect4205"
       style="color:#000000;clip-rule:evenodd;display:inline;overflow:visible;visibility:visible;opacity:1;isolation:auto;mix-blend-mode:normal;color-interpolation:sRGB;color-interpolation-filters:linearRGB;solid-color:#000000;solid-opacity:1;fill:#ffffff;fill-opacity:1;fill-rule:evenodd;stroke:none;stroke-width:8;stroke-linecap:round;stroke-linejoin:round;stroke-miterlimit:4;stroke-dasharray:none;stroke-dashoffset:0;stroke-opacity:1;marker:none;color-rendering:auto;image-rendering:auto;shape-rendering:auto;text-rendering:auto;enable-background:accumulate" />
    <flowRoot
       transform="translate(130,27.857143)"
       style="font-style:normal;font-variant:normal;font-weight:normal;font-stretch:normal;font-size:125px;line-height:125%;font-family:'ZX Spectrum7 Bold';-inkscape-font-specification:'ZX Spectrum7 Bold, ';letter-spacing:0px;word-spacing:0px;fill:#ffffff;fill-opacity:1;stroke:none;stroke-width:1px;stroke-linecap:butt;stroke-linejoin:miter;stroke-opacity:1"
       id="flowRoot4207"
       xml:space="preserve"><flowRegion
         id="flowRegion4209"><rect
           style="font-style:normal;font-variant:normal;font-weight:normal;font-stretch:normal;font-size:125px;font-family:'ZX Spectrum7 Bold';-inkscape-font-specification:'ZX Spectrum7 Bold, ';fill:#ffffff"
           y="293.79077"
           x="131.42857"
           height="219.99998"
           width="188.57141"
           id="rect4211" /></flowRegion><flowPara
         style="font-style:normal;font-variant:normal;font-weight:normal;font-stretch:normal;font-size:125px;font-family:'ZX Spectrum7 Bold';-inkscape-font-specification:'ZX Spectrum7 Bold, ';text-align:center;text-anchor:middle;fill:#ffffff"
         id="flowPara4213">2</flowPara></flowRoot>    <rect
       y="414.50507"
       x="224.28574"
       height="10"
       width="95.714287"
       id="rect4215"
       style="color:#000000;clip-rule:evenodd;display:inline;overflow:visible;visibility:visible;opacity:1;isolation:auto;mix-blend-mode:normal;color-interpolation:sRGB;color-interpolation-filters:linearRGB;solid-color:#000000;solid-opacity:1;fill:#ffffff;fill-opacity:1;fill-rule:evenodd;stroke:none;stroke-width:8;stroke-linecap:round;stroke-linejoin:round;stroke-miterlimit:4;stroke-dasharray:none;stroke-dashoffset:0;stroke-opacity:1;marker:none;color-rendering:auto;image-rendering:auto;shape-rendering:auto;text-rendering:auto;enable-background:accumulate" />
    <rect
       style="color:#000000;clip-rule:evenodd;display:inline;overflow:visible;visibility:visible;opacity:1;isolation:auto;mix-blend-mode:normal;color-interpolation:sRGB;color-interpolation-filters:linearRGB;solid-color:#000000;solid-opacity:1;fill:#ffffff;fill-opacity:1;fill-rule:evenodd;stroke:none;stroke-width:8;stroke-linecap:round;stroke-linejoin:round;stroke-miterlimit:4;stroke-dasharray:none;stroke-dashoffset:0;stroke-opacity:1;marker:none;color-rendering:auto;image-rendering:auto;shape-rendering:auto;text-rendering:auto;enable-background:accumulate"
       id="rect4217"
       width="95.714287"
       height="10"
       x="395"
       y="414.50507" />
    <flowRoot
       xml:space="preserve"
       id="flowRoot4219"
       style="font-style:normal;font-variant:normal;font-weight:normal;font-stretch:normal;font-size:125px;line-height:125%;font-family:'ZX Spectrum7 Bold';-inkscape-font-specification:'ZX Spectrum7 Bold, ';letter-spacing:0px;word-spacing:0px;fill:#ffffff;fill-opacity:1;stroke:none;stroke-width:1px;stroke-linecap:butt;stroke-linejoin:miter;stroke-opacity:1"
       transform="translate(130,101.42857)"><flowRegion
         id="flowRegion4221"><rect
           id="rect4223"
           width="188.57141"
           height="219.99998"
           x="131.42857"
           y="293.79077"
           style="font-style:normal;font-variant:normal;font-weight:normal;font-stretch:normal;font-size:125px;font-family:'ZX Spectrum7 Bold';-inkscape-font-specification:'ZX Spectrum7 Bold, ';fill:#ffffff" /></flowRegion><flowPara
         id="flowPara4225"
         style="font-style:normal;font-variant:normal;font-weight:normal;font-stretch:normal;font-size:125px;font-family:'ZX Spectrum7 Bold';-inkscape-font-specification:'ZX Spectrum7 Bold, ';text-align:center;text-anchor:middle;fill:#ffffff">1</flowPara></flowRoot>    <rect
       style="color:#000000;clip-rule:evenodd;display:inline;overflow:visible;visibility:visible;opacity:1;isolation:auto;mix-blend-mode:normal;color-interpolation:sRGB;color-interpolation-filters:linearRGB;solid-color:#000000;solid-opacity:1;fill:#ffffff;fill-opacity:1;fill-rule:evenodd;stroke:none;stroke-width:8;stroke-linecap:round;stroke-linejoin:round;stroke-miterlimit:4;stroke-dasharray:none;stroke-dashoffset:0;stroke-opacity:1;marker:none;color-rendering:auto;image-rendering:auto;shape-rendering:auto;text-rendering:auto;enable-background:accumulate"
       id="rect4227"
       width="95.714287"
       height="10"
       x="224.28574"
       y="488.07651" />
    <rect
       y="488.07651"
       x="395"
       height="10"
       width="95.714287"
       id="rect4229"
       style="color:#000000;clip-rule:evenodd;display:inline;overflow:visible;visibility:visible;opacity:1;isolation:auto;mix-blend-mode:normal;color-interpolation:sRGB;color-interpolation-filters:linearRGB;solid-color:#000000;solid-opacity:1;fill:#ffffff;fill-opacity:1;fill-rule:evenodd;stroke:none;stroke-width:8;stroke-linecap:round;stroke-linejoin:round;stroke-miterlimit:4;stroke-dasharray:none;stroke-dashoffset:0;stroke-opacity:1;marker:none;color-rendering:auto;image-rendering:auto;shape-rendering:auto;text-rendering:auto;enable-background:accumulate" />
    <flowRoot
       transform="translate(130,175.71428)"
       style="font-style:normal;font-variant:normal;font-weight:normal;font-stretch:normal;font-size:125px;line-height:125%;font-family:'ZX Spectrum7 Bold';-inkscape-font-specification:'ZX Spectrum7 Bold, ';letter-spacing:0px;word-spacing:0px;fill:#ffffff;fill-opacity:1;stroke:none;stroke-width:1px;stroke-linecap:butt;stroke-linejoin:miter;stroke-opacity:1"
       id="flowRoot4231"
       xml:space="preserve"><flowRegion
         id="flowRegion4233"><rect
           style="font-style:normal;font-variant:normal;font-weight:normal;font-stretch:normal;font-size:125px;font-family:'ZX Spectrum7 Bold';-inkscape-font-specification:'ZX Spectrum7 Bold, ';fill:#ffffff"
           y="294.50507"
           x="-4.9999981"
           height="192.85713"
           width="486.42859"
           id="rect4235" /></flowRegion><flowPara
         style="font-style:normal;font-variant:normal;font-weight:normal;font-stretch:normal;font-size:125px;font-family:'ZX Spectrum7 Bold';-inkscape-font-specification:'ZX Spectrum7 Bold, ';text-align:center;text-anchor:middle;fill:#ffffff"
         id="flowPara4237">Fight!</flowPara></flowRoot>    <text
       xml:space="preserve"
       style="font-style:normal;font-weight:normal;font-size:40px;line-height:125%;font-family:sans-serif;letter-spacing:0px;word-spacing:0px;fill:#000000;fill-opacity:1;stroke:none;stroke-width:1px;stroke-linecap:butt;stroke-linejoin:miter;stroke-opacity:1"
       x="55"
       y="573.07648"
       id="text4243"
       sodipodi:linespacing="125%"><tspan
         sodipodi:role="line"
         id="tspan4245"
         x="55"
         y="573.07648" /></text>
    <rect
       y="598.07648"
       x="224.28574"
       height="10"
       width="270.71429"
       id="rect4247"
       style="color:#000000;clip-rule:evenodd;display:inline;overflow:visible;visibility:visible;opacity:1;isolation:auto;mix-blend-mode:normal;color-interpolation:sRGB;color-interpolation-filters:linearRGB;solid-color:#000000;solid-opacity:1;fill:#ffffff;fill-opacity:1;fill-rule:evenodd;stroke:none;stroke-width:8;stroke-linecap:round;stroke-linejoin:round;stroke-miterlimit:4;stroke-dasharray:none;stroke-dashoffset:0;stroke-opacity:1;marker:none;color-rendering:auto;image-rendering:auto;shape-rendering:auto;text-rendering:auto;enable-background:accumulate" />
  </g>
</svg>
